<svg id="c9bed2cd-1d37-41ef-804e-c6499879d667" data-name="Layer 1" xmlns="http://www.w3.org/2000/svg" viewBox="0 0 26 26">
  <defs>
    <style>
      .\37 5289de9-71a9-40b8-a0b8-ea47f941d869 {
        stroke: #000;
        stroke-miterlimit: 10;
        stroke-width: 0.5px;
      }
    </style>
  </defs>
  <title>icon--voting</title>
  <g>
    <path d="M4.86218,21.35337H9.29394L9.901,17.74895H5.62112Zm1.461-2.73968H8.878l-.31561,1.87453H5.92848Z"/>
    <polygon points="10.453 14.213 9.535 14.753 9.448 15.269 6.964 15.269 7.336 13.5 9.413 13.5 10.699 12.754 10.711 12.684 6.674 12.684 5.958 16.084 10.138 16.084 10.453 14.213"/>
    <polygon points="10.905 12.894 8.707 14.171 8.133 13.619 7.562 13.967 8.566 15.027 11.44 13.339 10.905 12.894"/>
    <path d="M25.81789,5.56061l-1.08-1.27852a.79585.79585,0,0,0-1.12121-.09434l-.93052.7863,2.10665,2.49407.93073-.7861A.796.796,0,0,0,25.81789,5.56061Z"/>
    <polygon class="75289de9-71a9-40b8-a0b8-ea47f941d869" points="21.827 10.568 20.897 11.349 23.915 23.801 2.268 23.801 5.465 10.612 15.255 10.612 16.597 9.523 4.609 9.523 0.884 24.89 25.299 24.89 21.827 10.568"/>
    <polygon points="22.277 5.32 13.77 12.505 15.877 15 20.654 10.965 20.657 10.962 21.707 10.074 24.383 7.814 22.277 5.32"/>
    <polygon points="12.029 16.135 15.331 15.335 13.349 12.988 12.029 16.135"/>
  </g>
</svg>
