<svg xmlns="http://www.w3.org/2000/svg" viewBox="0 0 100 50.25">
  <defs>
    <style>
      .\37 86ca5b0-5cd0-47b1-998f-ed6cc8c95385 {
        opacity: 0.05;
      }

      .f0cdc8b1-4576-459c-b64c-e0695051f9ce {
        opacity: 0.1;
      }

      .fae97f96-58b5-4ef8-be6e-54a148a8ba01 {
        opacity: 0.2;
      }
    </style>
  </defs>
  <title>signet--kfb</title>
  <g id="a3c24ca0-0f5f-4634-a322-ed2377f9644c" data-name="Layer 2">
    <g class="786ca5b0-5cd0-47b1-998f-ed6cc8c95385">
      <path d="M6.52637,10.165h7.01758L10.78223,22.751h.08984L22.59766,10.165h8.51172L16.124,25.82959,25.31445,40H17.0293l-7.334-11.99707H9.60449L6.97852,40H-.03809Z"/>
      <path d="M32.24023,23.8374H28.12109l.86035-5.25146h3.93848l.3623-2.17285a11.11219,11.11219,0,0,1,2.12793-5.0708,8.97473,8.97473,0,0,1,7.334-3.39551A10.751,10.751,0,0,1,48.584,9.53125l-2.26367,5.252a6.08924,6.08924,0,0,0-3.0332-.95068c-1.81055,0-2.80664.99561-3.21387,3.395l-.22656,1.3584H45.2793L43.42285,23.8374H38.98633c-1.44922,10.14111-2.53516,19.28662-10.95605,26.168l-4.52734-4.21045C30.11328,39.13965,30.83691,34.06934,32.24023,23.8374Z"/>
      <path d="M51.2998,10.165h8.7373c6.38379,0,9.00977,2.85254,9.00977,6.791a7.95953,7.95953,0,0,1-4.52734,7.15332v.09033a5.40763,5.40763,0,0,1,4.11914,5.43262C68.63867,35.02,64.20215,40,55.3291,40H44.73535Zm4.75391,24.22119c3.44043,0,5.7041-1.44873,5.7041-4.07471,0-1.856-1.62988-2.58057-3.667-2.58057h-3.667l-1.44922,6.65527Zm1.90137-12.269c2.26367,0,4.21-1.35791,4.21-3.93848,0-1.313-.86035-2.35449-3.07812-2.35449H57.04883l-1.40332,6.293Z"/>
    </g>
    <g class="f0cdc8b1-4576-459c-b64c-e0695051f9ce">
      <path d="M10.11035,10.165h7.01758L14.36621,22.751h.08984L26.18164,10.165h8.51172L19.708,25.82959,28.89844,40H20.61328l-7.334-11.99707h-.09082L10.5625,40H3.5459Z"/>
      <path d="M35.82422,23.8374H31.70508l.86035-5.25146h3.93848l.3623-2.17285a11.11219,11.11219,0,0,1,2.12793-5.0708,8.97473,8.97473,0,0,1,7.334-3.39551A10.751,10.751,0,0,1,52.168,9.53125l-2.26367,5.252a6.08924,6.08924,0,0,0-3.0332-.95068c-1.81055,0-2.80664.99561-3.21387,3.395l-.22656,1.3584h5.43262L47.00684,23.8374H42.57031c-1.44922,10.14111-2.53516,19.28662-10.95605,26.168l-4.52734-4.21045C33.69727,39.13965,34.4209,34.06934,35.82422,23.8374Z"/>
      <path d="M54.88379,10.165h8.7373c6.38379,0,9.00977,2.85254,9.00977,6.791a7.95953,7.95953,0,0,1-4.52734,7.15332v.09033a5.40763,5.40763,0,0,1,4.11914,5.43262C72.22266,35.02,67.78613,40,58.91309,40H48.31934ZM59.6377,34.38623c3.44043,0,5.7041-1.44873,5.7041-4.07471,0-1.856-1.62988-2.58057-3.667-2.58057h-3.667l-1.44922,6.65527Zm1.90137-12.269c2.26367,0,4.21-1.35791,4.21-3.93848,0-1.313-.86035-2.35449-3.07812-2.35449H60.63281l-1.40332,6.293Z"/>
    </g>
    <g class="fae97f96-58b5-4ef8-be6e-54a148a8ba01">
      <path d="M18.793,10.165h7.01758L23.04883,22.751h.08984L34.86426,10.165H43.376L28.39063,25.82959,37.58105,40H29.2959l-7.334-11.99707h-.09082L19.24512,40h-7.0166Z"/>
      <path d="M44.50684,23.8374H40.3877l.86035-5.25146h3.93848l.3623-2.17285a11.11219,11.11219,0,0,1,2.12793-5.0708,8.97473,8.97473,0,0,1,7.334-3.39551,10.751,10.751,0,0,1,5.83984,1.58447l-2.26367,5.252a6.08924,6.08924,0,0,0-3.0332-.95068c-1.81055,0-2.80664.99561-3.21387,3.395l-.22656,1.3584H57.5459L55.68945,23.8374H51.25293c-1.44922,10.14111-2.53516,19.28662-10.95605,26.168l-4.52734-4.21045C42.37988,39.13965,43.10352,34.06934,44.50684,23.8374Z"/>
      <path d="M63.56641,10.165h8.7373c6.38379,0,9.00977,2.85254,9.00977,6.791a7.95953,7.95953,0,0,1-4.52734,7.15332v.09033a5.40763,5.40763,0,0,1,4.11914,5.43262C80.90527,35.02,76.46875,40,67.5957,40H57.002Zm4.75391,24.22119c3.44043,0,5.7041-1.44873,5.7041-4.07471,0-1.856-1.62988-2.58057-3.667-2.58057h-3.667l-1.44922,6.65527Zm1.90137-12.269c2.26367,0,4.21-1.35791,4.21-3.93848,0-1.313-.86035-2.35449-3.07812-2.35449H69.31543l-1.40332,6.293Z"/>
    </g>
    <g>
      <path d="M32.57227,10.165h7.01758L36.82813,22.751H36.918L48.64355,10.165h8.51172L42.16992,25.82959,51.36035,40H43.0752l-7.334-11.99707h-.09082L33.02441,40h-7.0166Z"/>
      <path d="M58.28613,23.8374H54.167l.86035-5.25146h3.93848l.3623-2.17285a11.11219,11.11219,0,0,1,2.12793-5.0708A8.97473,8.97473,0,0,1,68.79,7.94678a10.751,10.751,0,0,1,5.83984,1.58447l-2.26367,5.252a6.08924,6.08924,0,0,0-3.0332-.95068c-1.81055,0-2.80664.99561-3.21387,3.395l-.22656,1.3584H71.3252L69.46875,23.8374H65.03223C63.583,33.97852,62.49707,43.124,54.07617,50.00537l-4.52734-4.21045C56.15918,39.13965,56.88281,34.06934,58.28613,23.8374Z"/>
      <path d="M77.3457,10.165H86.083c6.38379,0,9.00977,2.85254,9.00977,6.791a7.95953,7.95953,0,0,1-4.52734,7.15332v.09033a5.40763,5.40763,0,0,1,4.11914,5.43262C94.68457,35.02,90.248,40,81.375,40H70.78125Zm4.75391,24.22119c3.44043,0,5.7041-1.44873,5.7041-4.07471,0-1.856-1.62988-2.58057-3.667-2.58057h-3.667l-1.44922,6.65527Zm1.90137-12.269c2.26367,0,4.21-1.35791,4.21-3.93848,0-1.313-.86035-2.35449-3.07812-2.35449H83.09473l-1.40332,6.293Z"/>
    </g>
  </g>
</svg>
