id;visible_in_atlas;name;accelerator_type;particles;size_label;size;abbreviation_for;max_energy;applications;label_dx;label_dy;label_align;name_short;location;lat;lng;typ;is_component_of;parent;url_pr;url_science
anka;1;ANKA;synchrotron;electrons;Umfang (Speicherring);110;Angströmquelle Karlsruhe;2500000000;photon-science;;;right;ANKA;Karlsruhe;49.09673;8.428319;Synchrotronstrahlungsquelle;;kit;;https://www.anka.kit.edu
bessy;1;BESSY II;synchrotron;electrons;Umfang (Speicherring);240;Berliner Elektronenspeicherring für Synchrotronstrahlung;1700000000;photon-science;;;left;BESSY II;Berlin;52.427635;13.532624;Synchrotronstrahlungsquelle;;hzb;https://www.helmholtz-berlin.de/quellen/bessy/;
cosy;1;COSY;synchrotron;ions;Umfang;183;Cooler Synchrotron;2880000000;nuclear-physics;;;right;COSY;Jülich;50905;6.411944;Kühlersynchrotron für Hadronen;;fz-juelich;"http://www.fz-juelich.de/ikp/DE/Forschung/Beschleuniger/_doc/COSY.html;jsessionid=181DA374FD1CBA7DDC65EE63582481AA";
csr;1;CSR;synchrotron;ions;Umfang;35;Cryogenic Storage Ring;300000;nuclear-physics;;;right;CSR;Heidelberg;49.386923;8.708575;Ionenspeicherring;;mpik;;https://www.mpi-hd.mpg.de/blaum/storage-rings/csr/index.de.html
delta;1;DELTA;synchrotron;electrons;Umfang (Speicherring);115;Dortmund Electron Accelerator;1500000000;photon-science;;;left;DELTA;TU Dortmund;51.492257;7.408144;Synchrotron;;tu-dortmund;http://www.delta.tu-dortmund.de/cms/de/Beschleuniger/;
elbe;1;ELBE;synchrotron;electrons;Länge;20;Elektronen Linearbeschleuniger für Strahlen hoher Brillanz und niedriger Emittanz;40000000;photon-science;;;right;ELBE;Dresden;51.063611;13.949722;Linearbeschleuniger mit Freie-Elektronen-Laser HZDR;;hzdr;https://www.hzdr.de/db/Cms?pNid=145;
elsa;1;ELSA;synchrotron;electrons;Umfang (Stretcherring);164;Elektronen-Stretcher Anlage;3500000000;nuclear-physics;;;left;ELSA;Bonn;50.727314;7.088386;Elektronenspeicherring;;uni-bonn;https://www-elsa.physik.uni-bonn.de;
esrf-accelerator;1;ESRF synchrotron;synchrotron;electrons;Umfang (Speicherring);844;European Synchrotron Radiation Facility;600000000;photon-science;;;;ESRF;Grenoble;45.208477;5.689927;Synchrotronstrahlungsquelle;;esrf;http://www.esrf.eu/Accelerators/Accelerators;
ess-accelerator;1;ESS;linear-accelerator;ions;Länge;600;European Spallation Source;200000000;neutron-science;;;;ESS;Lund;55.734199;13.249533;Linearbeschleuniger für Protonen;;ess;https://europeanspallationsource.se/accelerator;
european-xfel;1;European XFEL;linear-accelerator;electrons;Länge (Beschleuniger);2100;European X-ray Free-electron Laser;17500000000;photon-science;;;right;European XFEL;Schenefeld;53.588611;9.829444;Freie-Elektronen-Laser European;;xfel-gmbh;http://www.xfel.eu;
fair;1;FAIR;synchrotron;ions;Umfang (SIS100);1100;Facility for Antiproton and Ion Research;30000000000;nuclear-physics;;-1;left;FAIR;Darmstadt;49.931389;8.679167;Antiprotonen- und Ionenbeschleuniger;;fair-gmbh;http://www.fair-center.eu/index.php?id=120&L=1;
flash;1;FLASH;linear-accelerator;electrons;Länge (Beschleuniger);150;Free-electron Laser in Hamburg;1250000000;photon-science;;-1;left;FLASH;Hamburg;53.579904;9.881408;Freie-Elektronen-Laser;;desy;http://www.desy.de/forschung/anlagen__projekte/flash/;
lhc;1;Large Hadron Collider;synchrotron;ions;Umfang;27000;Large Hadron Collider;4000000000000;nuclear-physics, particle-physics;;;;LHC;Genf;46.233333;6.049167;Synchrotron und Speicherring für Protonen und Ionen;;cern;http://home.cern/topics/large-hadron-collider;
mami;1;MAMI;microtron;electrons;Grundfläche;30;Mainzer Mikrotron;1600000000;nuclear-physics;;;right;MAMI;Mainz;49.990501;8.236307;Elektronenbeschleuniger;;uni-mainz;http://www.kph.uni-mainz.de/mami.php;http://portal.kph.uni-mainz.de/B1//
mls;1;MLS;synchrotron;electrons;Umfang (Speicherring);48;Metrological Light Source;630000000;photon-science;;;right;MLS;Berlin;52.426766;13.535691;Synchrotronstrahlungsquelle;;ptb;;https://www.ptb.de/mls/
petra;1;PETRA III;synchrotron;electrons;Umfang (Speicherring);2300;Positron-Elektron-Tandem-Ringanlage;6000000000;photon-science;;;left;PETRA III;Hamburg;53.575833;9.879444;Synchrotronstrahlungsquelle;;desy;http://www.desy.de/forschung/anlagen__projekte/petra_iii/;http://petra3.desy.de
s-dalinac;1;S-DALINAC;synchrotron;electrons;Grundfläche;25;Supraleitender Darmstädter Elektronenlinearbeschleuniger;130000000;nuclear-physics;;;left;S-DALINAC;TU Darmstadt;49.879409;8.654923;Elektronenbeschleuniger;;tu-darmstadt;http://www.ikp.tu-darmstadt.de/sdalinac_ikp/;
sis18;1;SIS 18;synchrotron;ions;Umfang;216;Schwerionen-Synchrotron;4000000000;nuclear-physics;;;;SIS 18;Darmstadt;49.931389;8.679167;Schwerionensynchrotron;gsi;gsi-gmbh;;
unilac;1;UNILAC;synchrotron;ions;Länge;120;Universal Linear Accelerator;;nuclear-physics;;;;UNILAC;Darmstadt;49.931389;8.679167;Linearbeschleuniger;gsi;gsi-gmbh;;