id;hidden;name_short;type;abroad;subtype;subtype-label;name;city;lat;lng;particles;size_label;size;max_energy;applications;label_dx;label_dy;label_alignment;is_component_of;parent;electoral-group;url_pr;url_science
anka;0;ANKA;accelerator;;synchrotron;Synchrotronstrahlungsquelle;Angströmquelle Karlsruhe;Karlsruhe;49.09673;8.428319;electrons;Umfang (Speicherring);110;2500000000;photon-science;;;;;kit;;;https://www.anka.kit.edu
bessy;0;BESSY II;accelerator;;synchrotron;Synchrotronstrahlungsquelle;Berliner Elektronenspeicherring für Synchrotronstrahlung;Berlin;52.427635;13.532624;electrons;Umfang (Speicherring);240;1700000000;photon-science;;-1;;;hzb;;https://www.helmholtz-berlin.de/quellen/bessy/;
cosy;0;COSY;accelerator;;synchrotron;Kühlersynchrotron für Hadronen;Cooler Synchrotron;Jülich;50905;6.411944;ions;Umfang;183;2880000000;nuclear-physics;;;;;fz-juelich;;"http://www.fz-juelich.de/ikp/DE/Forschung/Beschleuniger/_doc/COSY.html;jsessionid=181DA374FD1CBA7DDC65EE63582481AA";
csr;0;CSR;accelerator;;synchrotron;Ionenspeicherring;Cryogenic Storage Ring;Heidelberg;49.386923;8.708575;ions;Umfang;35;300000;nuclear-physics;;;;;mpik;;;https://www.mpi-hd.mpg.de/blaum/storage-rings/csr/index.de.html
delta;0;DELTA;accelerator;;synchrotron;Synchrotron;Dortmund Electron Accelerator;TU Dortmund;51.492257;7.408144;electrons;Umfang (Speicherring);115;1500000000;photon-science;;;;;tu-dortmund;;http://www.delta.tu-dortmund.de/cms/de/Beschleuniger/;
elbe;0;ELBE;accelerator;;synchrotron;Linearbeschleuniger mit Freie-Elektronen-Laser HZDR;Elektronen Linearbeschleuniger für Strahlen hoher Brillanz und niedriger Emittanz;Dresden;51.063611;13.949722;electrons;Länge;20;40000000;photon-science;;;;;hzdr;;https://www.hzdr.de/db/Cms?pNid=145;
elsa;0;ELSA;accelerator;;synchrotron;Elektronenspeicherring;Elektronen-Stretcher Anlage;Bonn;50.727314;7.088386;electrons;Umfang (Stretcherring);164;3500000000;nuclear-physics;;;;;uni-bonn;;https://www-elsa.physik.uni-bonn.de;
esrf-accelerator;0;ESRF synchrotron;accelerator;1;synchrotron;Synchrotronstrahlungsquelle;European Synchrotron Radiation Facility;Grenoble;45.208477;5.689927;electrons;Umfang (Speicherring);844;600000000;photon-science;;;;;esrf;;http://www.esrf.eu/Accelerators/Accelerators;
ess-accelerator;0;ESS;accelerator;1;linear-accelerator;Linearbeschleuniger für Protonen;European Spallation Source;Lund;55.734199;13.249533;ions;Länge;600;200000000;neutron-science;;;;;ess;;https://europeanspallationsource.se/accelerator;
european-xfel;0;European XFEL;accelerator;;linear-accelerator;Freie-Elektronen-Laser European;European X-ray Free-electron Laser;Schenefeld;53.588611;9.829444;electrons;Länge (Beschleuniger);2100;17500000000;photon-science;;;;;xfel-gmbh;;http://www.xfel.eu;
fair;0;FAIR;accelerator;;synchrotron;Antiprotonen- und Ionenbeschleuniger;Facility for Antiproton and Ion Research;Darmstadt;49.931389;8.679167;ions;Umfang (SIS100);1100;30000000000;nuclear-physics;;-1;;;fair-gmbh;;http://www.fair-center.eu/index.php?id=120&L=1;
flash;0;FLASH;accelerator;;linear-accelerator;Freie-Elektronen-Laser;Free-electron Laser in Hamburg;Hamburg;53.579904;9.881408;electrons;Länge (Beschleuniger);150;1250000000;photon-science;;1;;;desy;;http://www.desy.de/forschung/anlagen__projekte/flash/;
lhc;0;LHC;accelerator;1;synchrotron;Synchrotron und Speicherring für Protonen und Ionen;Large Hadron Collider;Genf;46.233333;6.049167;ions;Umfang;27000;4000000000000;nuclear-physics, particle-physics;;;;;cern;;http://home.cern/topics/large-hadron-collider;
mami;0;MAMI;accelerator;;microtron;Elektronenbeschleuniger;Mainzer Mikrotron;Mainz;49.990501;8.236307;electrons;Grundfläche;30;1600000000;nuclear-physics;;;;;uni-mainz;;http://www.kph.uni-mainz.de/mami.php;http://portal.kph.uni-mainz.de/B1//
mls;0;MLS;accelerator;;synchrotron;Synchrotronstrahlungsquelle;Metrological Light Source;Berlin;52.426766;13.535691;electrons;Umfang (Speicherring);48;630000000;photon-science;;;;;ptb;;;https://www.ptb.de/mls/
petra;0;PETRA III;accelerator;;synchrotron;Synchrotronstrahlungsquelle;Positron-Elektron-Tandem-Ringanlage;Hamburg;53.575833;9.879444;electrons;Umfang (Speicherring);2300;6000000000;photon-science;;2;;;desy;;http://www.desy.de/forschung/anlagen__projekte/petra_iii/;http://petra3.desy.de
s-dalinac;0;S-DALINAC;accelerator;;synchrotron;Elektronenbeschleuniger;Supraleitender Darmstädter Elektronenlinearbeschleuniger;TU Darmstadt;49.879409;8.654923;electrons;Grundfläche;25;130000000;nuclear-physics;;;;;tu-darmstadt;;http://www.ikp.tu-darmstadt.de/sdalinac_ikp/;
sis18;0;SIS 18;accelerator;;synchrotron;Schwerionensynchrotron;Schwerionen-Synchrotron;Darmstadt;49.931389;8.679167;ions;Umfang;216;4000000000;nuclear-physics;;;;gsi;gsi-gmbh;;;
unilac;0;UNILAC;accelerator;;synchrotron;Linearbeschleuniger;Universal Linear Accelerator;Darmstadt;49.931389;8.679167;ions;Länge;120;;nuclear-physics;;;;gsi;gsi-gmbh;;;
cern;0;CERN;research-institute;;;;CERN;Genf;46.233333;6.049167;;;;;;;;;;;abroad;http://cern.ch;
cfel;0;CFEL;research-institute;;;;Center for Free-Electron Laser Science;Hamburg;53.5790478;9.885067;;;;;;;-3;;;;others;;
desy;0;DESY;research-institute;;;;Deutsches Elektronen-Synchrotron DESY;Hamburg und Zeuthen;;;;;;;;;;;;;helmholtz;http://www.desy.de/;
desy-hamburg;0;DESY Hamburg;research-institute;;;;DESY Hamburg;Hamburg;53.575833;9.880547;;;;;;;-2;;;;helmholtz;;
desy-zeuthen;0;DESY Zeuthen;research-institute;;;;DESY Zeuthen;Zeuthen;52.3456192;13.6329787;;;;;;;;;;;helmholtz;;
esrf;0;ESRF;research-institute;;;;European Synchrotron Radiation Facility;Grenoble;45.208477;5.689927;;;;;;;;;;;abroad;http://www.esrf.eu;
ess;0;ESS ERIC;research-institute;;;;European Spallatation Source;Lund;55.734199;13.249533;;;;;;;;;;;abroad;http://esss.se;
european-xfel-gmbh;0;European XFEL GmbH;research-institute;;;;European XFEL;Schenefeld;53.588611;9.829444;;;;;;;-1;;;;others;http://www.xfel.eu;
fair-gmbh;0;FAIR GmbH;research-institute;;;;FAIR GmbH;Darmstadt;49.931389;8.679167;;;;;;;;;;;others;http://www.fair-center.eu;
fz-juelich;0;FZ Jülich;research-institute;;;;Forschungszentrum Jülich;Jülich;50905;6.411944;;;;;;;;;;;helmholtz;http://www.fz-juelich.de/;
gsi-gmbh;0;GSI;research-institute;;;;GSI Helmholtzzentrum für Schwerionenforschung Darmstadt;Darmstadt;49.931389;8.679167;;;;;;;;;;;helmholtz;https://www.gsi.de/start/aktuelles.htm;
hi-mainz;0;HI Mainz;research-institute;;;;Helmholtz-Institut Mainz;Mainz;49.9915834;8.2350083;;;;;;;;;;;helmholtz;;
hzb;0;HZB;research-institute;;;;Helmholtz-Zentrum Berlin für Materialien und Energie HZB;Berlin Wannsee und Berlin Adlershof;52.41;13.129444;;;;;;;;;;;helmholtz;https://www.helmholtz-berlin.de;
hzdr;0;HZDR;research-institute;;;;Helmholtz-Zentrum Dresden-Rossendorf HZDR;Dresden;51.063611;13.949722;;;;;;;;;;;helmholtz;https://www.hzdr.de/;
mpik;0;MPIK;research-institute;;;;Max-Planck-Institut für Kernphysik MPIK;Heidelberg;49.387778;8.709167;;;;;;;;;;;others;https://www.mpi-hd.mpg.de/mpi/de/start/;
psi;0;PSI;research-institute;;;;Paul Scherrer Institut;Villigen;47.536111;8.222778;;;;;;;;;;;abroad;;
ptb;0;PTB;research-institute;;;;Physikalisch-Technische Bundesanstalt PTB;Braunschweig und Berlin;52.295278;10.463611;;;;;;;;;;;others;http://www.ptb.de/;
hu-berlin;0;HU Berlin;university;;;;Humboldt-Universität zu Berlin;Berlin;52.432122;13.533304;;;;;;;;;;;university;http://hu-berlin.de;
kit;0;KIT;university;;;;Karlsruher Institut für Technologie KIT;Karlsruhe;49.00947;8.41167;;;;;;;;;;;university;http://www.kit.edu/;
lmu;0;LMU;university;;;;Ludwig-Maximilians-Universität München;München;48.150833;11.580278;;;;;;;;;;;university;http://www.uni-muenchen.de/;
rwth-aachen;0;RWTH Aachen;university;;;;Rheinisch-Westfälische Technische Hochschule Aachen;Aachen;50.778856;6.059911;;;;;;;;;;;university;https://www.rwth-aachen.de;
tu-berlin;0;TU Berlin;university;;;;Technische Universität Berlin;Berlin;52.5131317;13.3202612;;;;;;;;;;;university;;
tu-darmstadt;0;TU Darmstadt;university;;;;Technische Universität Darmstadt;Darmstadt;49875;8.656944;;;;;;;;;;;university;http://www.tu-darmstadt.de;
tu-dortmund;0;TU Dortmund;university;;;;Technische Universität Dortmund;Dortmund;51.492461;7.414267;;;;;;;;;;;university;http://www.tu-dortmund.de;
tu-dresden;0;TU Dresden;university;;;;Technische Universität Dresden;Dresden;51.028056;13.726667;;;;;;;;;;;university;;
uni-bonn;0;Uni Bonn;university;;;;Rheinische Friedrich-Wilhelms-Universität Bonn;Bonn;50.733889;7.102222;;;;;;;;;;;university;https://www.uni-bonn.de;
uni-duesseldorf;0;Uni Düsseldorf;university;;;;Heinrich-Heine-Universität Düsseldorf;Düsseldorf;51.190278;6.794167;;;;;;;;;;;university;;
uni-frankfurt;0;Uni Frankfurt;university;;;;Goethe-Universität Frankfurt am Main;Frankfurt;50.119444;8.651389;;;;;;;;;;;university;http://www.uni-frankfurt.de;
uni-goettingen;0;Uni Göttingen;university;;;;Georg-August-Universität Göttingen;Göttingen;51.541861;9.934475;;;;;;;;left bottom;;;university;;
uni-hamburg;0;Uni Hamburg;university;;;;Universität Hamburg;Hamburg;53.566944;9.983889;;;;;;;;;;;university;https://www.uni-hamburg.de;
uni-heidelberg;0;Uni Heidelberg;university;;;;Ruprecht-Karls-Universität Heidelberg;Heidelberg;49.410492;8.70659;;;;;;;;;;;university;https://www.uni-heidelberg.de;
uni-jena;0;Uni Jena;university;;;;Friedrich-Schiller-Universität Jena;Jena;50.929444;11.589444;;;;;;;;top;;;university;https://www.uni-jena.de;
uni-kassel;0;Universität Kassel;university;;;;Universität Kassel;Kassel;51.322774;9.507562;;;;;;;;left top;;;university;;
uni-mainz;0;Uni Mainz;university;;;;Johannes Gutenberg-Universität Mainz;Mainz;49.993056;8.241667;;;;;;;;;;;university;http://www.kph.uni-mainz.de;
uni-rostock;0;Uni Rostock;university;;;;Universität Rostock;Rostock;54.088133;12.133373;;;;;;;;;;;university;http://www.uni-rostock.de;
uni-siegen;0;Uni Siegen;university;;;;Universität Siegen;Siegen;50.906389;8.028333;;;;;;;;;;;university;https://www.uni-siegen.de/start/;
uni-wuppertal;0;Uni Wuppertal;university;;;;Bergische Universität Wuppertal;Wuppertal;51.245278;7.149444;;;;;;;;;;;university;;