{
    "options": {
        "keepalive": true
    },
    "dev": {
        "options": {

            "livereload": true,
            "port": 9001,
            "hostname": "localhost",
            "open": true,
            "base": [
                ".tmp",
                "<%= config.paths.build.development %>"
            ]
        }
    },
    "prod": {
        "options": {
            "port": 9002,
            "livereload": false,
            "hostname": "localhost",
            "open": true,
            "base": [
                ".tmp",
                "<%= config.paths.build.production %>"
            ]
        }
    }
}